vcd/mac_testResetFunctionality.vcd
$date
   Sun Apr 27 22:24:29 2025 UTC
$end
$version
    MyHDL 0.11.51
$end
$timescale
    1ns
$end

  $scope module mac $end
    $var reg 1 ! clk $end
    $var reg 1 " reset $end
    $var reg 8 # a $end
    $var reg 8 $ b $end
    $var reg 1 % enable $end
    $var reg 32 & result $end
    $var reg 1 ' overflow $end
    $var reg 32 ( acc $end
    $var reg 16 ) product $end
  $upscope $end

$enddefinitions $end

$dumpvars
0!
0"
b00000000 #
b00000000 $
0%
b00000000000000000000000000000000 &
0'
b00000000000000000000000000000000 (
b0000000000000000 )
$end
1"
#5
1!
#10
0!
0"
b00000010 #
b00000011 $
1%
b0000000000000110 )
#15
1!
b00000000000000000000000000000110 (
b00000000000000000000000000000110 &
#20
0!
#25
1!
b00000000000000000000000000001100 (
b00000000000000000000000000001100 &
#30
0!
#35
1!
b00000000000000000000000000010010 (
b00000000000000000000000000010010 &
#40
0!
#45
1!
b00000000000000000000000000011000 (
b00000000000000000000000000011000 &
#50
0!
#55
1!
b00000000000000000000000000011110 (
b00000000000000000000000000011110 &
#60
0!
#65
1!
b00000000000000000000000000100100 (
b00000000000000000000000000100100 &
#70
0!
#75
1!
b00000000000000000000000000101010 (
b00000000000000000000000000101010 &
#80
0!
#85
1!
b00000000000000000000000000110000 (
b00000000000000000000000000110000 &
#90
0!
#95
1!
b00000000000000000000000000110110 (
b00000000000000000000000000110110 &
#100
0!
#105
1!
b00000000000000000000000000111100 (
b00000000000000000000000000111100 &
#110
0!
#115
1!
b00000000000000000000000001000010 (
b00000000000000000000000001000010 &
#120
0!
#125
1!
b00000000000000000000000001001000 (
b00000000000000000000000001001000 &
#130
0!
#135
1!
b00000000000000000000000001001110 (
b00000000000000000000000001001110 &
#140
0!
#145
1!
b00000000000000000000000001010100 (
b00000000000000000000000001010100 &
#150
0!
#155
1!
b00000000000000000000000001011010 (
b00000000000000000000000001011010 &
#160
0!
#165
1!
b00000000000000000000000001100000 (
b00000000000000000000000001100000 &
#170
0!
#175
1!
b00000000000000000000000001100110 (
b00000000000000000000000001100110 &
#180
0!
#185
1!
b00000000000000000000000001101100 (
b00000000000000000000000001101100 &
#190
0!
#195
1!
b00000000000000000000000001110010 (
b00000000000000000000000001110010 &
#200
0!
#205
1!
b00000000000000000000000001111000 (
b00000000000000000000000001111000 &
#210
0!
#215
1!
b00000000000000000000000001111110 (
b00000000000000000000000001111110 &
#220
0!
#225
1!
b00000000000000000000000010000100 (
b00000000000000000000000010000100 &
#230
0!
#235
1!
b00000000000000000000000010001010 (
b00000000000000000000000010001010 &
#240
0!
#245
1!
b00000000000000000000000010010000 (
b00000000000000000000000010010000 &
#250
0!
#255
1!
b00000000000000000000000010010110 (
b00000000000000000000000010010110 &
#260
0!
#265
1!
b00000000000000000000000010011100 (
b00000000000000000000000010011100 &
#270
0!
#275
1!
b00000000000000000000000010100010 (
b00000000000000000000000010100010 &
#280
0!
#285
1!
b00000000000000000000000010101000 (
b00000000000000000000000010101000 &
#290
0!
#295
1!
b00000000000000000000000010101110 (
b00000000000000000000000010101110 &
#300
0!
#305
1!
b00000000000000000000000010110100 (
b00000000000000000000000010110100 &
#310
0!
#315
1!
b00000000000000000000000010111010 (
b00000000000000000000000010111010 &
#320
0!
#325
1!
b00000000000000000000000011000000 (
b00000000000000000000000011000000 &
#330
0!
#335
1!
b00000000000000000000000011000110 (
b00000000000000000000000011000110 &
#340
0!
#345
1!
b00000000000000000000000011001100 (
b00000000000000000000000011001100 &
#350
0!
#355
1!
b00000000000000000000000011010010 (
b00000000000000000000000011010010 &
#360
0!
#365
1!
b00000000000000000000000011011000 (
b00000000000000000000000011011000 &
#370
0!
#375
1!
b00000000000000000000000011011110 (
b00000000000000000000000011011110 &
#380
0!
#385
1!
b00000000000000000000000011100100 (
b00000000000000000000000011100100 &
#390
0!
#395
1!
b00000000000000000000000011101010 (
b00000000000000000000000011101010 &
#400
0!
#405
1!
b00000000000000000000000011110000 (
b00000000000000000000000011110000 &
#410
0!
#415
1!
b00000000000000000000000011110110 (
b00000000000000000000000011110110 &
#420
0!
#425
1!
b00000000000000000000000011111100 (
b00000000000000000000000011111100 &
#430
0!
#435
1!
b00000000000000000000000100000010 (
b00000000000000000000000100000010 &
#440
0!
#445
1!
b00000000000000000000000100001000 (
b00000000000000000000000100001000 &
#450
0!
#455
1!
b00000000000000000000000100001110 (
b00000000000000000000000100001110 &
#460
0!
#465
1!
b00000000000000000000000100010100 (
b00000000000000000000000100010100 &
#470
0!
#475
1!
b00000000000000000000000100011010 (
b00000000000000000000000100011010 &
#480
0!
#485
1!
b00000000000000000000000100100000 (
b00000000000000000000000100100000 &
#490
0!
#495
1!
b00000000000000000000000100100110 (
b00000000000000000000000100100110 &
