vcd/pe_testBasicFunction.vcd
$date
   Sun Apr 27 23:37:33 2025 UTC
$end
$version
    MyHDL 0.11.51
$end
$timescale
    1ns
$end

  $scope module pe $end
    $var reg 1 ! clk $end
    $var reg 8 " i_a $end
    $var reg 8 # i_b $end
    $var reg 1 $ i_data_valid $end
    $var reg 1 % i_read_en $end
    $var reg 1 & i_reset $end
    $var reg 8 ' o_a $end
    $var reg 8 ( o_b $end
    $var reg 16 ) o_c $end
    $var reg 1 * o_saturate_detect $end
    $var reg 1 + mac_enable $end
    $var reg 1 , mac_overflow $end
    $var reg 16 - mac_result $end
    $scope module mac0 $end
      $var reg 1 ! clk $end
      $var reg 1 & reset $end
      $var reg 8 " a $end
      $var reg 8 # b $end
      $var reg 1 + enable $end
      $var reg 16 - result $end
      $var reg 1 , overflow $end
      $var reg 16 . acc $end
      $var reg 16 / product $end
    $upscope $end
  $upscope $end

$enddefinitions $end

$dumpvars
0!
b00000000 "
b00000000 #
0$
0%
0&
b00000000 '
b00000000 (
b0000000000000000 )
0*
0+
0,
b0000000000000000 -
b0000000000000000 .
b0000000000000000 /
$end
b00000011 "
b00000100 #
1$
1+
b0000000000001100 /
b00000011 '
b00000100 (
#5
1!
b0000000000001100 .
b0000000000001100 -
#10
0!
0$
0+
#15
1!
#20
0!
#25
1!
#30
0!
#35
1!
#40
0!
#45
1!
#50
0!
#55
1!
1%
b0000000000001100 )
#60
0!
#65
1!
#70
0%
b00000101 "
b00000110 #
1$
0!
1+
b00000101 '
b00000110 (
b0000000000000000 )
b0000000000011110 /
#75
1!
b0000000000101010 .
b0000000000101010 -
#80
0!
#85
1!
b0000000001001000 .
b0000000001001000 -
#90
0!
#95
1!
b0000000001100110 .
b0000000001100110 -
#100
0!
#105
1!
b0000000010000100 .
b0000000010000100 -
#110
0!
#115
1!
0$
1%
b0000000010100010 .
b0000000010100010 -
b0000000010000100 )
0+
b0000000010100010 )
